[title: tutti a Dubai]

**[uno]**  
S. e il pargolo si trasferiscono a Dubai  

**[m]**  
a si?  
avrà trovato lo sceicco che se la scopa  

**[uno]**  
e si... sai la vita in italia non è più sostenibile....  
ma vaffanculo va  

**[m]**  
:)  

**[uno]**  
io mi sbatto ad insegnargli a registrare l'audio in modo decente...  
senti  
manco se era dentro un cassonetto  

**[m]**  
terribile...  

**[uno]**  
terribile si
e niente quella donna ha altre qualità  

**[m]**  
:) quali?    

**[uno]**   
non ne ho idea  
e non lo voglio sapere  


